0.000000 0.000000 0.000000 0.000000 0.000000 
23163.000000 14.621347 2.513467 0.014020 0.000788 
1510123.000000 642.397565 170.207450 0.460951 0.090739 
184649.000000 179.739421 23.366646 0.094142 0.014240 
0.000000 0.000000 0.000000 0.000000 0.000000 
3648.000000 0.672128 0.202938 0.000741 0.000024 
160984.000000 -110.936372 27.115099 0.072498 0.038811 
935713.000000 308.331749 182.519764 0.170055 0.169188 
136226.000000 -25.551311 27.137460 0.176811 0.021921 
6502.000000 107.986871 2.510618 0.068983 0.002254 
0.000000 0.000000 0.000000 0.000000 0.000000 
1.000000 -0.005865 0.000034 -0.000000 0.000000 
109938.000000 -776.661044 37.227419 -0.946371 0.051933 
33428.000000 -39.758980 9.259659 -0.009511 0.008313 
0.000000 0.000000 0.000000 0.000000 0.000000 
0.000000 0.000000 0.000000 0.000000 0.000000 
0.000000 0.000000 0.000000 0.000000 0.000000 
9556.000000 -206.562529 8.994564 -0.447462 0.026031 
107.000000 -1.160601 0.034138 -0.001308 0.000060 
0.000000 0.000000 0.000000 0.000000 0.000000 
0.000000 0.000000 0.000000 0.000000 0.000000 
0.000000 0.000000 0.000000 0.000000 0.000000 
824.000000 -21.355186 1.104065 -0.066519 0.004445 
23.000000 -0.472551 0.019246 -0.000882 0.000043 
0.000000 0.000000 0.000000 0.000000 0.000000 
