
3.00 , 4.00 -> J300sP400s_NOCWT			
	tot	341
	full	17
	sites	324

3.00 , 4.25 -> J300sP425s_NOCWT			
	tot	337
	full	17
	sites	320

3.00 , 4.50 -> J300sP450s_NOCWT			
	tot	335
	full	17
	sites	318

3.00 , 4.75 -> J300sP475s_NOCWT			
	tot	330
	full	17
	sites	313

3.00 , 5.00 -> J300sP500s_NOCWT			
	tot	328
	full	17
	sites	311

3.00 , 5.25 -> J300sP525s_NOCWT			
	tot	326
	full	17
	sites	309

3.00 , 5.50 -> J300sP550s_NOCWT			
	tot	320
	full	17
	sites	303

3.00 , 5.75 -> J300sP575s_NOCWT			
	tot	321
	full	17
	sites	304

3.00 , 6.00 -> J300sP600s_NOCWT			
	tot	321
	full	17
	sites	304

3.00 , 6.25 -> J300sP625s_NOCWT			
	tot	320
	full	17
	sites	303

3.00 , 6.50 -> J300sP650s_NOCWT			
	tot	316
	full	17
	sites	299

3.00 , 6.75 -> J300sP675s_NOCWT			
	tot	315
	full	17
	sites	298

3.00 , 7.00 -> J300sP700s_NOCWT			
	tot	315
	full	17
	sites	298

3.00 , 7.25 -> J300sP725s_NOCWT			
	tot	314
	full	17
	sites	297

3.00 , 7.50 -> J300sP750s_NOCWT			
	tot	314
	full	17
	sites	297

3.00 , 7.75 -> J300sP775s_NOCWT			
	tot	314
	full	17
	sites	297

3.00 , 8.00 -> J300sP800s_NOCWT			
	tot	314
	full	17
	sites	297

3.00 , 8.25 -> J300sP825s_NOCWT			
	tot	314
	full	17
	sites	297

3.00 , 8.50 -> J300sP850s_NOCWT			
	tot	314
	full	17
	sites	297

3.00 , 8.75 -> J300sP875s_NOCWT			
	tot	313
	full	17
	sites	296

3.00 , 9.00 -> J300sP900s_NOCWT			
	tot	313
	full	17
	sites	296

3.00 , 9.25 -> J300sP925s_NOCWT			
	tot	313
	full	17
	sites	296

3.00 , 9.50 -> J300sP950s_NOCWT			
	tot	313
	full	17
	sites	296

3.00 , 9.75 -> J300sP975s_NOCWT			
	tot	312
	full	17
	sites	295

3.00 , 10.00 -> J300sP1000s_NOCWT			
	tot	312
	full	17
	sites	295

3.00 , 10.25 -> J300sP1025s_NOCWT			
	tot	312
	full	17
	sites	295

3.00 , 10.50 -> J300sP1050s_NOCWT			
	tot	312
	full	17
	sites	295

3.00 , 10.75 -> J300sP1075s_NOCWT			
	tot	312
	full	17
	sites	295

3.00 , 11.00 -> J300sP1100s_NOCWT			
	tot	312
	full	17
	sites	295

3.00 , 11.25 -> J300sP1125s_NOCWT			
	tot	312
	full	17
	sites	295

3.00 , 11.50 -> J300sP1150s_NOCWT			
	tot	312
	full	17
	sites	295

3.00 , 11.75 -> J300sP1175s_NOCWT			
	tot	312
	full	17
	sites	295

3.00 , 12.00 -> J300sP1200s_NOCWT			
	tot	312
	full	17
	sites	295

3.25 , 4.00 -> J325sP400s_NOCWT			
	tot	322
	full	17
	sites	305

3.25 , 4.25 -> J325sP425s_NOCWT			
	tot	318
	full	17
	sites	301

3.25 , 4.50 -> J325sP450s_NOCWT			
	tot	316
	full	17
	sites	299

3.25 , 4.75 -> J325sP475s_NOCWT			
	tot	310
	full	17
	sites	293

3.25 , 5.00 -> J325sP500s_NOCWT			
	tot	307
	full	17
	sites	290

3.25 , 5.25 -> J325sP525s_NOCWT			
	tot	303
	full	17
	sites	286

3.25 , 5.50 -> J325sP550s_NOCWT			
	tot	297
	full	17
	sites	280

3.25 , 5.75 -> J325sP575s_NOCWT			
	tot	298
	full	17
	sites	281

3.25 , 6.00 -> J325sP600s_NOCWT			
	tot	298
	full	17
	sites	281

3.25 , 6.25 -> J325sP625s_NOCWT			
	tot	297
	full	17
	sites	280

3.25 , 6.50 -> J325sP650s_NOCWT			
	tot	293
	full	17
	sites	276

3.25 , 6.75 -> J325sP675s_NOCWT			
	tot	292
	full	17
	sites	275

3.25 , 7.00 -> J325sP700s_NOCWT			
	tot	292
	full	17
	sites	275

3.25 , 7.25 -> J325sP725s_NOCWT			
	tot	291
	full	17
	sites	274

3.25 , 7.50 -> J325sP750s_NOCWT			
	tot	291
	full	17
	sites	274

3.25 , 7.75 -> J325sP775s_NOCWT			
	tot	291
	full	17
	sites	274

3.25 , 8.00 -> J325sP800s_NOCWT			
	tot	291
	full	17
	sites	274

3.25 , 8.25 -> J325sP825s_NOCWT			
	tot	291
	full	17
	sites	274

3.25 , 8.50 -> J325sP850s_NOCWT			
	tot	291
	full	17
	sites	274

3.25 , 8.75 -> J325sP875s_NOCWT			
	tot	290
	full	17
	sites	273

3.25 , 9.00 -> J325sP900s_NOCWT			
	tot	290
	full	17
	sites	273

3.25 , 9.25 -> J325sP925s_NOCWT			
	tot	290
	full	17
	sites	273

3.25 , 9.50 -> J325sP950s_NOCWT			
	tot	290
	full	17
	sites	273

3.25 , 9.75 -> J325sP975s_NOCWT			
	tot	288
	full	17
	sites	271

3.25 , 10.00 -> J325sP1000s_NOCWT			
	tot	288
	full	17
	sites	271

3.25 , 10.25 -> J325sP1025s_NOCWT			
	tot	288
	full	17
	sites	271

3.25 , 10.50 -> J325sP1050s_NOCWT			
	tot	288
	full	17
	sites	271

3.25 , 10.75 -> J325sP1075s_NOCWT			
	tot	288
	full	17
	sites	271

3.25 , 11.00 -> J325sP1100s_NOCWT			
	tot	288
	full	17
	sites	271

3.25 , 11.25 -> J325sP1125s_NOCWT			
	tot	288
	full	17
	sites	271

3.25 , 11.50 -> J325sP1150s_NOCWT			
	tot	288
	full	17
	sites	271

3.25 , 11.75 -> J325sP1175s_NOCWT			
	tot	288
	full	17
	sites	271

3.25 , 12.00 -> J325sP1200s_NOCWT			
	tot	288
	full	17
	sites	271

3.50 , 4.00 -> J350sP400s_NOCWT			
	tot	308
	full	17
	sites	291

3.50 , 4.25 -> J350sP425s_NOCWT			
	tot	304
	full	17
	sites	287

3.50 , 4.50 -> J350sP450s_NOCWT			
	tot	302
	full	17
	sites	285

3.50 , 4.75 -> J350sP475s_NOCWT			
	tot	295
	full	17
	sites	278

3.50 , 5.00 -> J350sP500s_NOCWT			
	tot	292
	full	17
	sites	275

3.50 , 5.25 -> J350sP525s_NOCWT			
	tot	288
	full	17
	sites	271

3.50 , 5.50 -> J350sP550s_NOCWT			
	tot	282
	full	17
	sites	265

3.50 , 5.75 -> J350sP575s_NOCWT			
	tot	284
	full	17
	sites	267

3.50 , 6.00 -> J350sP600s_NOCWT			
	tot	284
	full	17
	sites	267

3.50 , 6.25 -> J350sP625s_NOCWT			
	tot	282
	full	17
	sites	265

3.50 , 6.50 -> J350sP650s_NOCWT			
	tot	278
	full	17
	sites	261

3.50 , 6.75 -> J350sP675s_NOCWT			
	tot	277
	full	17
	sites	260

3.50 , 7.00 -> J350sP700s_NOCWT			
	tot	277
	full	17
	sites	260

3.50 , 7.25 -> J350sP725s_NOCWT			
	tot	276
	full	17
	sites	259

3.50 , 7.50 -> J350sP750s_NOCWT			
	tot	276
	full	17
	sites	259

3.50 , 7.75 -> J350sP775s_NOCWT			
	tot	276
	full	17
	sites	259

3.50 , 8.00 -> J350sP800s_NOCWT			
	tot	276
	full	17
	sites	259

3.50 , 8.25 -> J350sP825s_NOCWT			
	tot	276
	full	17
	sites	259

3.50 , 8.50 -> J350sP850s_NOCWT			
	tot	276
	full	17
	sites	259

3.50 , 8.75 -> J350sP875s_NOCWT			
	tot	275
	full	17
	sites	258

3.50 , 9.00 -> J350sP900s_NOCWT			
	tot	275
	full	17
	sites	258

3.50 , 9.25 -> J350sP925s_NOCWT			
	tot	275
	full	17
	sites	258

3.50 , 9.50 -> J350sP950s_NOCWT			
	tot	275
	full	17
	sites	258

3.50 , 9.75 -> J350sP975s_NOCWT			
	tot	273
	full	17
	sites	256

3.50 , 10.00 -> J350sP1000s_NOCWT			
	tot	273
	full	17
	sites	256

3.50 , 10.25 -> J350sP1025s_NOCWT			
	tot	273
	full	17
	sites	256

3.50 , 10.50 -> J350sP1050s_NOCWT			
	tot	273
	full	17
	sites	256

3.50 , 10.75 -> J350sP1075s_NOCWT			
	tot	273
	full	17
	sites	256

3.50 , 11.00 -> J350sP1100s_NOCWT			
	tot	273
	full	17
	sites	256

3.50 , 11.25 -> J350sP1125s_NOCWT			
	tot	273
	full	17
	sites	256

3.50 , 11.50 -> J350sP1150s_NOCWT			
	tot	273
	full	17
	sites	256

3.50 , 11.75 -> J350sP1175s_NOCWT			
	tot	273
	full	17
	sites	256

3.50 , 12.00 -> J350sP1200s_NOCWT			
	tot	273
	full	17
	sites	256

3.75 , 4.00 -> J375sP400s_NOCWT			
	tot	303
	full	17
	sites	286

3.75 , 4.25 -> J375sP425s_NOCWT			
	tot	298
	full	17
	sites	281

3.75 , 4.50 -> J375sP450s_NOCWT			
	tot	296
	full	17
	sites	279

3.75 , 4.75 -> J375sP475s_NOCWT			
	tot	289
	full	17
	sites	272

3.75 , 5.00 -> J375sP500s_NOCWT			
	tot	286
	full	17
	sites	269

3.75 , 5.25 -> J375sP525s_NOCWT			
	tot	282
	full	17
	sites	265

3.75 , 5.50 -> J375sP550s_NOCWT			
	tot	276
	full	17
	sites	259

3.75 , 5.75 -> J375sP575s_NOCWT			
	tot	278
	full	17
	sites	261

3.75 , 6.00 -> J375sP600s_NOCWT			
	tot	278
	full	17
	sites	261

3.75 , 6.25 -> J375sP625s_NOCWT			
	tot	276
	full	17
	sites	259

3.75 , 6.50 -> J375sP650s_NOCWT			
	tot	272
	full	17
	sites	255

3.75 , 6.75 -> J375sP675s_NOCWT			
	tot	271
	full	17
	sites	254

3.75 , 7.00 -> J375sP700s_NOCWT			
	tot	271
	full	17
	sites	254

3.75 , 7.25 -> J375sP725s_NOCWT			
	tot	270
	full	17
	sites	253

3.75 , 7.50 -> J375sP750s_NOCWT			
	tot	270
	full	17
	sites	253

3.75 , 7.75 -> J375sP775s_NOCWT			
	tot	270
	full	17
	sites	253

3.75 , 8.00 -> J375sP800s_NOCWT			
	tot	270
	full	17
	sites	253

3.75 , 8.25 -> J375sP825s_NOCWT			
	tot	270
	full	17
	sites	253

3.75 , 8.50 -> J375sP850s_NOCWT			
	tot	270
	full	17
	sites	253

3.75 , 8.75 -> J375sP875s_NOCWT			
	tot	269
	full	17
	sites	252

3.75 , 9.00 -> J375sP900s_NOCWT			
	tot	269
	full	17
	sites	252

3.75 , 9.25 -> J375sP925s_NOCWT			
	tot	269
	full	17
	sites	252

3.75 , 9.50 -> J375sP950s_NOCWT			
	tot	269
	full	17
	sites	252

3.75 , 9.75 -> J375sP975s_NOCWT			
	tot	267
	full	17
	sites	250

3.75 , 10.00 -> J375sP1000s_NOCWT			
	tot	266
	full	17
	sites	249

3.75 , 10.25 -> J375sP1025s_NOCWT			
	tot	266
	full	17
	sites	249

3.75 , 10.50 -> J375sP1050s_NOCWT			
	tot	266
	full	17
	sites	249

3.75 , 10.75 -> J375sP1075s_NOCWT			
	tot	266
	full	17
	sites	249

3.75 , 11.00 -> J375sP1100s_NOCWT			
	tot	266
	full	17
	sites	249

3.75 , 11.25 -> J375sP1125s_NOCWT			
	tot	266
	full	17
	sites	249

3.75 , 11.50 -> J375sP1150s_NOCWT			
	tot	266
	full	17
	sites	249

3.75 , 11.75 -> J375sP1175s_NOCWT			
	tot	266
	full	17
	sites	249

3.75 , 12.00 -> J375sP1200s_NOCWT			
	tot	266
	full	17
	sites	249

4.00 , 4.00 -> J400sP400s_NOCWT			
	tot	296
	full	17
	sites	279

4.00 , 4.25 -> J400sP425s_NOCWT			
	tot	289
	full	17
	sites	272

4.00 , 4.50 -> J400sP450s_NOCWT			
	tot	287
	full	17
	sites	270

4.00 , 4.75 -> J400sP475s_NOCWT			
	tot	280
	full	17
	sites	263

4.00 , 5.00 -> J400sP500s_NOCWT			
	tot	277
	full	17
	sites	260

4.00 , 5.25 -> J400sP525s_NOCWT			
	tot	272
	full	17
	sites	255

4.00 , 5.50 -> J400sP550s_NOCWT			
	tot	266
	full	17
	sites	249

4.00 , 5.75 -> J400sP575s_NOCWT			ERROR!
	tot	263
	full	16
	sites	247

4.00 , 6.00 -> J400sP600s_NOCWT			
	tot	268
	full	17
	sites	251

4.00 , 6.25 -> J400sP625s_NOCWT			
	tot	266
	full	17
	sites	249

4.00 , 6.50 -> J400sP650s_NOCWT			
	tot	262
	full	17
	sites	245

4.00 , 6.75 -> J400sP675s_NOCWT			
	tot	261
	full	17
	sites	244

4.00 , 7.00 -> J400sP700s_NOCWT			
	tot	261
	full	17
	sites	244

4.00 , 7.25 -> J400sP725s_NOCWT			
	tot	260
	full	17
	sites	243

4.00 , 7.50 -> J400sP750s_NOCWT			
	tot	260
	full	17
	sites	243

4.00 , 7.75 -> J400sP775s_NOCWT			
	tot	260
	full	17
	sites	243

4.00 , 8.00 -> J400sP800s_NOCWT			
	tot	260
	full	17
	sites	243

4.00 , 8.25 -> J400sP825s_NOCWT			
	tot	260
	full	17
	sites	243

4.00 , 8.50 -> J400sP850s_NOCWT			
	tot	260
	full	17
	sites	243

4.00 , 8.75 -> J400sP875s_NOCWT			
	tot	259
	full	17
	sites	242

4.00 , 9.00 -> J400sP900s_NOCWT			
	tot	259
	full	17
	sites	242

4.00 , 9.25 -> J400sP925s_NOCWT			
	tot	259
	full	17
	sites	242

4.00 , 9.50 -> J400sP950s_NOCWT			
	tot	259
	full	17
	sites	242

4.00 , 9.75 -> J400sP975s_NOCWT			
	tot	257
	full	17
	sites	240

4.00 , 10.00 -> J400sP1000s_NOCWT			
	tot	256
	full	17
	sites	239

4.00 , 10.25 -> J400sP1025s_NOCWT			
	tot	256
	full	17
	sites	239

4.00 , 10.50 -> J400sP1050s_NOCWT			
	tot	256
	full	17
	sites	239

4.00 , 10.75 -> J400sP1075s_NOCWT			
	tot	256
	full	17
	sites	239

4.00 , 11.00 -> J400sP1100s_NOCWT			
	tot	256
	full	17
	sites	239

4.00 , 11.25 -> J400sP1125s_NOCWT			
	tot	256
	full	17
	sites	239

4.00 , 11.50 -> J400sP1150s_NOCWT			
	tot	256
	full	17
	sites	239

4.00 , 11.75 -> J400sP1175s_NOCWT			
	tot	256
	full	17
	sites	239

4.00 , 12.00 -> J400sP1200s_NOCWT			
	tot	256
	full	17
	sites	239

4.25 , 4.00 -> J425sP400s_NOCWT			
	tot	286
	full	17
	sites	269

4.25 , 4.25 -> J425sP425s_NOCWT			
	tot	279
	full	17
	sites	262

4.25 , 4.50 -> J425sP450s_NOCWT			
	tot	275
	full	17
	sites	258

4.25 , 4.75 -> J425sP475s_NOCWT			
	tot	268
	full	17
	sites	251

4.25 , 5.00 -> J425sP500s_NOCWT			
	tot	265
	full	17
	sites	248

4.25 , 5.25 -> J425sP525s_NOCWT			
	tot	260
	full	17
	sites	243

4.25 , 5.50 -> J425sP550s_NOCWT			
	tot	254
	full	17
	sites	237

4.25 , 5.75 -> J425sP575s_NOCWT			
	tot	256
	full	17
	sites	239

4.25 , 6.00 -> J425sP600s_NOCWT			
	tot	256
	full	17
	sites	239

4.25 , 6.25 -> J425sP625s_NOCWT			
	tot	253
	full	17
	sites	236

4.25 , 6.50 -> J425sP650s_NOCWT			
	tot	249
	full	17
	sites	232

4.25 , 6.75 -> J425sP675s_NOCWT			
	tot	248
	full	17
	sites	231

4.25 , 7.00 -> J425sP700s_NOCWT			
	tot	247
	full	17
	sites	230

4.25 , 7.25 -> J425sP725s_NOCWT			
	tot	246
	full	17
	sites	229

4.25 , 7.50 -> J425sP750s_NOCWT			
	tot	246
	full	17
	sites	229

4.25 , 7.75 -> J425sP775s_NOCWT			
	tot	246
	full	17
	sites	229

4.25 , 8.00 -> J425sP800s_NOCWT			
	tot	246
	full	17
	sites	229

4.25 , 8.25 -> J425sP825s_NOCWT			
	tot	246
	full	17
	sites	229

4.25 , 8.50 -> J425sP850s_NOCWT			
	tot	246
	full	17
	sites	229

4.25 , 8.75 -> J425sP875s_NOCWT			
	tot	245
	full	17
	sites	228

4.25 , 9.00 -> J425sP900s_NOCWT			
	tot	245
	full	17
	sites	228

4.25 , 9.25 -> J425sP925s_NOCWT			
	tot	245
	full	17
	sites	228

4.25 , 9.50 -> J425sP950s_NOCWT			
	tot	245
	full	17
	sites	228

4.25 , 9.75 -> J425sP975s_NOCWT			
	tot	243
	full	17
	sites	226

4.25 , 10.00 -> J425sP1000s_NOCWT			
	tot	242
	full	17
	sites	225

4.25 , 10.25 -> J425sP1025s_NOCWT			
	tot	242
	full	17
	sites	225

4.25 , 10.50 -> J425sP1050s_NOCWT			
	tot	242
	full	17
	sites	225

4.25 , 10.75 -> J425sP1075s_NOCWT			
	tot	242
	full	17
	sites	225

4.25 , 11.00 -> J425sP1100s_NOCWT			
	tot	242
	full	17
	sites	225

4.25 , 11.25 -> J425sP1125s_NOCWT			
	tot	242
	full	17
	sites	225

4.25 , 11.50 -> J425sP1150s_NOCWT			
	tot	242
	full	17
	sites	225

4.25 , 11.75 -> J425sP1175s_NOCWT			
	tot	242
	full	17
	sites	225

4.25 , 12.00 -> J425sP1200s_NOCWT			
	tot	242
	full	17
	sites	225

4.50 , 4.00 -> J450sP400s_NOCWT			
	tot	280
	full	17
	sites	263

4.50 , 4.25 -> J450sP425s_NOCWT			
	tot	273
	full	17
	sites	256

4.50 , 4.50 -> J450sP450s_NOCWT			
	tot	269
	full	17
	sites	252

4.50 , 4.75 -> J450sP475s_NOCWT			
	tot	261
	full	17
	sites	244

4.50 , 5.00 -> J450sP500s_NOCWT			
	tot	258
	full	17
	sites	241

4.50 , 5.25 -> J450sP525s_NOCWT			
	tot	253
	full	17
	sites	236

4.50 , 5.50 -> J450sP550s_NOCWT			
	tot	247
	full	17
	sites	230

4.50 , 5.75 -> J450sP575s_NOCWT			
	tot	247
	full	17
	sites	230

4.50 , 6.00 -> J450sP600s_NOCWT			
	tot	247
	full	17
	sites	230

4.50 , 6.25 -> J450sP625s_NOCWT			
	tot	244
	full	17
	sites	227

4.50 , 6.50 -> J450sP650s_NOCWT			
	tot	240
	full	17
	sites	223

4.50 , 6.75 -> J450sP675s_NOCWT			
	tot	239
	full	17
	sites	222

4.50 , 7.00 -> J450sP700s_NOCWT			
	tot	238
	full	17
	sites	221

4.50 , 7.25 -> J450sP725s_NOCWT			
	tot	237
	full	17
	sites	220

4.50 , 7.50 -> J450sP750s_NOCWT			
	tot	237
	full	17
	sites	220

4.50 , 7.75 -> J450sP775s_NOCWT			
	tot	237
	full	17
	sites	220

4.50 , 8.00 -> J450sP800s_NOCWT			
	tot	237
	full	17
	sites	220

4.50 , 8.25 -> J450sP825s_NOCWT			
	tot	237
	full	17
	sites	220

4.50 , 8.50 -> J450sP850s_NOCWT			
	tot	237
	full	17
	sites	220

4.50 , 8.75 -> J450sP875s_NOCWT			
	tot	236
	full	17
	sites	219

4.50 , 9.00 -> J450sP900s_NOCWT			
	tot	236
	full	17
	sites	219

4.50 , 9.25 -> J450sP925s_NOCWT			
	tot	236
	full	17
	sites	219

4.50 , 9.50 -> J450sP950s_NOCWT			
	tot	236
	full	17
	sites	219

4.50 , 9.75 -> J450sP975s_NOCWT			
	tot	234
	full	17
	sites	217

4.50 , 10.00 -> J450sP1000s_NOCWT			
	tot	233
	full	17
	sites	216

4.50 , 10.25 -> J450sP1025s_NOCWT			
	tot	233
	full	17
	sites	216

4.50 , 10.50 -> J450sP1050s_NOCWT			
	tot	233
	full	17
	sites	216

4.50 , 10.75 -> J450sP1075s_NOCWT			
	tot	233
	full	17
	sites	216

4.50 , 11.00 -> J450sP1100s_NOCWT			
	tot	233
	full	17
	sites	216

4.50 , 11.25 -> J450sP1125s_NOCWT			
	tot	233
	full	17
	sites	216

4.50 , 11.50 -> J450sP1150s_NOCWT			
	tot	233
	full	17
	sites	216

4.50 , 11.75 -> J450sP1175s_NOCWT			
	tot	233
	full	17
	sites	216

4.50 , 12.00 -> J450sP1200s_NOCWT			
	tot	233
	full	17
	sites	216

4.75 , 4.00 -> J475sP400s_NOCWT			
	tot	272
	full	17
	sites	255

4.75 , 4.25 -> J475sP425s_NOCWT			
	tot	265
	full	17
	sites	248

4.75 , 4.50 -> J475sP450s_NOCWT			
	tot	261
	full	17
	sites	244

4.75 , 4.75 -> J475sP475s_NOCWT			
	tot	253
	full	17
	sites	236

4.75 , 5.00 -> J475sP500s_NOCWT			
	tot	250
	full	17
	sites	233

4.75 , 5.25 -> J475sP525s_NOCWT			
	tot	245
	full	17
	sites	228

4.75 , 5.50 -> J475sP550s_NOCWT			
	tot	239
	full	17
	sites	222

4.75 , 5.75 -> J475sP575s_NOCWT			
	tot	239
	full	17
	sites	222

4.75 , 6.00 -> J475sP600s_NOCWT			
	tot	239
	full	17
	sites	222

4.75 , 6.25 -> J475sP625s_NOCWT			
	tot	236
	full	17
	sites	219

4.75 , 6.50 -> J475sP650s_NOCWT			
	tot	232
	full	17
	sites	215

4.75 , 6.75 -> J475sP675s_NOCWT			
	tot	231
	full	17
	sites	214

4.75 , 7.00 -> J475sP700s_NOCWT			
	tot	230
	full	17
	sites	213

4.75 , 7.25 -> J475sP725s_NOCWT			
	tot	229
	full	17
	sites	212

4.75 , 7.50 -> J475sP750s_NOCWT			
	tot	229
	full	17
	sites	212

4.75 , 7.75 -> J475sP775s_NOCWT			
	tot	229
	full	17
	sites	212

4.75 , 8.00 -> J475sP800s_NOCWT			
	tot	229
	full	17
	sites	212

4.75 , 8.25 -> J475sP825s_NOCWT			
	tot	229
	full	17
	sites	212

4.75 , 8.50 -> J475sP850s_NOCWT			
	tot	229
	full	17
	sites	212

4.75 , 8.75 -> J475sP875s_NOCWT			
	tot	228
	full	17
	sites	211

4.75 , 9.00 -> J475sP900s_NOCWT			
	tot	228
	full	17
	sites	211

4.75 , 9.25 -> J475sP925s_NOCWT			
	tot	228
	full	17
	sites	211

4.75 , 9.50 -> J475sP950s_NOCWT			
	tot	228
	full	17
	sites	211

4.75 , 9.75 -> J475sP975s_NOCWT			
	tot	226
	full	17
	sites	209

4.75 , 10.00 -> J475sP1000s_NOCWT			
	tot	225
	full	17
	sites	208

4.75 , 10.25 -> J475sP1025s_NOCWT			
	tot	225
	full	17
	sites	208

4.75 , 10.50 -> J475sP1050s_NOCWT			
	tot	225
	full	17
	sites	208

4.75 , 10.75 -> J475sP1075s_NOCWT			
	tot	225
	full	17
	sites	208

4.75 , 11.00 -> J475sP1100s_NOCWT			
	tot	225
	full	17
	sites	208

4.75 , 11.25 -> J475sP1125s_NOCWT			
	tot	225
	full	17
	sites	208

4.75 , 11.50 -> J475sP1150s_NOCWT			
	tot	225
	full	17
	sites	208

4.75 , 11.75 -> J475sP1175s_NOCWT			
	tot	225
	full	17
	sites	208

4.75 , 12.00 -> J475sP1200s_NOCWT			
	tot	225
	full	17
	sites	208

5.00 , 4.00 -> J500sP400s_NOCWT			
	tot	273
	full	17
	sites	256

5.00 , 4.25 -> J500sP425s_NOCWT			
	tot	266
	full	17
	sites	249

5.00 , 4.50 -> J500sP450s_NOCWT			
	tot	262
	full	17
	sites	245

5.00 , 4.75 -> J500sP475s_NOCWT			
	tot	253
	full	17
	sites	236

5.00 , 5.00 -> J500sP500s_NOCWT			
	tot	250
	full	17
	sites	233

5.00 , 5.25 -> J500sP525s_NOCWT			
	tot	245
	full	17
	sites	228

5.00 , 5.50 -> J500sP550s_NOCWT			
	tot	240
	full	17
	sites	223

5.00 , 5.75 -> J500sP575s_NOCWT			
	tot	239
	full	17
	sites	222

5.00 , 6.00 -> J500sP600s_NOCWT			
	tot	239
	full	17
	sites	222

5.00 , 6.25 -> J500sP625s_NOCWT			
	tot	236
	full	17
	sites	219

5.00 , 6.50 -> J500sP650s_NOCWT			
	tot	232
	full	17
	sites	215

5.00 , 6.75 -> J500sP675s_NOCWT			
	tot	231
	full	17
	sites	214

5.00 , 7.00 -> J500sP700s_NOCWT			
	tot	229
	full	17
	sites	212

5.00 , 7.25 -> J500sP725s_NOCWT			
	tot	228
	full	17
	sites	211

5.00 , 7.50 -> J500sP750s_NOCWT			
	tot	228
	full	17
	sites	211

5.00 , 7.75 -> J500sP775s_NOCWT			
	tot	228
	full	17
	sites	211

5.00 , 8.00 -> J500sP800s_NOCWT			
	tot	228
	full	17
	sites	211

5.00 , 8.25 -> J500sP825s_NOCWT			
	tot	228
	full	17
	sites	211

5.00 , 8.50 -> J500sP850s_NOCWT			
	tot	228
	full	17
	sites	211

5.00 , 8.75 -> J500sP875s_NOCWT			
	tot	227
	full	17
	sites	210

5.00 , 9.00 -> J500sP900s_NOCWT			
	tot	227
	full	17
	sites	210

5.00 , 9.25 -> J500sP925s_NOCWT			
	tot	227
	full	17
	sites	210

5.00 , 9.50 -> J500sP950s_NOCWT			
	tot	227
	full	17
	sites	210

5.00 , 9.75 -> J500sP975s_NOCWT			
	tot	225
	full	17
	sites	208

5.00 , 10.00 -> J500sP1000s_NOCWT			
	tot	224
	full	17
	sites	207

5.00 , 10.25 -> J500sP1025s_NOCWT			
	tot	224
	full	17
	sites	207

5.00 , 10.50 -> J500sP1050s_NOCWT			
	tot	224
	full	17
	sites	207

5.00 , 10.75 -> J500sP1075s_NOCWT			
	tot	224
	full	17
	sites	207

5.00 , 11.00 -> J500sP1100s_NOCWT			
	tot	224
	full	17
	sites	207

5.00 , 11.25 -> J500sP1125s_NOCWT			
	tot	224
	full	17
	sites	207

5.00 , 11.50 -> J500sP1150s_NOCWT			
	tot	224
	full	17
	sites	207

5.00 , 11.75 -> J500sP1175s_NOCWT			
	tot	224
	full	17
	sites	207

5.00 , 12.00 -> J500sP1200s_NOCWT			
	tot	224
	full	17
	sites	207

5.25 , 4.00 -> J525sP400s_NOCWT			
	tot	269
	full	17
	sites	252

5.25 , 4.25 -> J525sP425s_NOCWT			
	tot	262
	full	17
	sites	245

5.25 , 4.50 -> J525sP450s_NOCWT			
	tot	258
	full	17
	sites	241

5.25 , 4.75 -> J525sP475s_NOCWT			
	tot	249
	full	17
	sites	232

5.25 , 5.00 -> J525sP500s_NOCWT			
	tot	246
	full	17
	sites	229

5.25 , 5.25 -> J525sP525s_NOCWT			
	tot	241
	full	17
	sites	224

5.25 , 5.50 -> J525sP550s_NOCWT			
	tot	236
	full	17
	sites	219

5.25 , 5.75 -> J525sP575s_NOCWT			
	tot	235
	full	17
	sites	218

5.25 , 6.00 -> J525sP600s_NOCWT			
	tot	235
	full	17
	sites	218

5.25 , 6.25 -> J525sP625s_NOCWT			
	tot	232
	full	17
	sites	215

5.25 , 6.50 -> J525sP650s_NOCWT			
	tot	228
	full	17
	sites	211

5.25 , 6.75 -> J525sP675s_NOCWT			
	tot	227
	full	17
	sites	210

5.25 , 7.00 -> J525sP700s_NOCWT			
	tot	225
	full	17
	sites	208

5.25 , 7.25 -> J525sP725s_NOCWT			
	tot	224
	full	17
	sites	207

5.25 , 7.50 -> J525sP750s_NOCWT			
	tot	224
	full	17
	sites	207

5.25 , 7.75 -> J525sP775s_NOCWT			
	tot	224
	full	17
	sites	207

5.25 , 8.00 -> J525sP800s_NOCWT			
	tot	224
	full	17
	sites	207

5.25 , 8.25 -> J525sP825s_NOCWT			
	tot	224
	full	17
	sites	207

5.25 , 8.50 -> J525sP850s_NOCWT			
	tot	224
	full	17
	sites	207

5.25 , 8.75 -> J525sP875s_NOCWT			
	tot	223
	full	17
	sites	206

5.25 , 9.00 -> J525sP900s_NOCWT			
	tot	223
	full	17
	sites	206

5.25 , 9.25 -> J525sP925s_NOCWT			
	tot	223
	full	17
	sites	206

5.25 , 9.50 -> J525sP950s_NOCWT			
	tot	223
	full	17
	sites	206

5.25 , 9.75 -> J525sP975s_NOCWT			
	tot	221
	full	17
	sites	204

5.25 , 10.00 -> J525sP1000s_NOCWT			
	tot	220
	full	17
	sites	203

5.25 , 10.25 -> J525sP1025s_NOCWT			
	tot	220
	full	17
	sites	203

5.25 , 10.50 -> J525sP1050s_NOCWT			
	tot	220
	full	17
	sites	203

5.25 , 10.75 -> J525sP1075s_NOCWT			
	tot	220
	full	17
	sites	203

5.25 , 11.00 -> J525sP1100s_NOCWT			
	tot	220
	full	17
	sites	203

5.25 , 11.25 -> J525sP1125s_NOCWT			
	tot	220
	full	17
	sites	203

5.25 , 11.50 -> J525sP1150s_NOCWT			
	tot	220
	full	17
	sites	203

5.25 , 11.75 -> J525sP1175s_NOCWT			
	tot	220
	full	17
	sites	203

5.25 , 12.00 -> J525sP1200s_NOCWT			
	tot	220
	full	17
	sites	203

5.50 , 4.00 -> J550sP400s_NOCWT			
	tot	267
	full	17
	sites	250

5.50 , 4.25 -> J550sP425s_NOCWT			
	tot	258
	full	17
	sites	241

5.50 , 4.50 -> J550sP450s_NOCWT			
	tot	254
	full	17
	sites	237

5.50 , 4.75 -> J550sP475s_NOCWT			
	tot	244
	full	17
	sites	227

5.50 , 5.00 -> J550sP500s_NOCWT			
	tot	240
	full	17
	sites	223

5.50 , 5.25 -> J550sP525s_NOCWT			
	tot	235
	full	17
	sites	218

5.50 , 5.50 -> J550sP550s_NOCWT			
	tot	230
	full	17
	sites	213

5.50 , 5.75 -> J550sP575s_NOCWT			
	tot	229
	full	17
	sites	212

5.50 , 6.00 -> J550sP600s_NOCWT			
	tot	229
	full	17
	sites	212

5.50 , 6.25 -> J550sP625s_NOCWT			
	tot	226
	full	17
	sites	209

5.50 , 6.50 -> J550sP650s_NOCWT			
	tot	222
	full	17
	sites	205

5.50 , 6.75 -> J550sP675s_NOCWT			
	tot	221
	full	17
	sites	204

5.50 , 7.00 -> J550sP700s_NOCWT			
	tot	219
	full	17
	sites	202

5.50 , 7.25 -> J550sP725s_NOCWT			
	tot	218
	full	17
	sites	201

5.50 , 7.50 -> J550sP750s_NOCWT			
	tot	218
	full	17
	sites	201

5.50 , 7.75 -> J550sP775s_NOCWT			
	tot	218
	full	17
	sites	201

5.50 , 8.00 -> J550sP800s_NOCWT			
	tot	218
	full	17
	sites	201

5.50 , 8.25 -> J550sP825s_NOCWT			
	tot	218
	full	17
	sites	201

5.50 , 8.50 -> J550sP850s_NOCWT			
	tot	218
	full	17
	sites	201

5.50 , 8.75 -> J550sP875s_NOCWT			
	tot	217
	full	17
	sites	200

5.50 , 9.00 -> J550sP900s_NOCWT			
	tot	217
	full	17
	sites	200

5.50 , 9.25 -> J550sP925s_NOCWT			
	tot	217
	full	17
	sites	200

5.50 , 9.50 -> J550sP950s_NOCWT			
	tot	217
	full	17
	sites	200

5.50 , 9.75 -> J550sP975s_NOCWT			
	tot	215
	full	17
	sites	198

5.50 , 10.00 -> J550sP1000s_NOCWT			
	tot	214
	full	17
	sites	197

5.50 , 10.25 -> J550sP1025s_NOCWT			
	tot	214
	full	17
	sites	197

5.50 , 10.50 -> J550sP1050s_NOCWT			
	tot	214
	full	17
	sites	197

5.50 , 10.75 -> J550sP1075s_NOCWT			
	tot	214
	full	17
	sites	197

5.50 , 11.00 -> J550sP1100s_NOCWT			
	tot	214
	full	17
	sites	197

5.50 , 11.25 -> J550sP1125s_NOCWT			
	tot	214
	full	17
	sites	197

5.50 , 11.50 -> J550sP1150s_NOCWT			
	tot	214
	full	17
	sites	197

5.50 , 11.75 -> J550sP1175s_NOCWT			
	tot	214
	full	17
	sites	197

5.50 , 12.00 -> J550sP1200s_NOCWT			
	tot	214
	full	17
	sites	197

5.75 , 4.00 -> J575sP400s_NOCWT			
	tot	265
	full	17
	sites	248

5.75 , 4.25 -> J575sP425s_NOCWT			
	tot	255
	full	17
	sites	238

5.75 , 4.50 -> J575sP450s_NOCWT			
	tot	251
	full	17
	sites	234

5.75 , 4.75 -> J575sP475s_NOCWT			
	tot	241
	full	17
	sites	224

5.75 , 5.00 -> J575sP500s_NOCWT			
	tot	237
	full	17
	sites	220

5.75 , 5.25 -> J575sP525s_NOCWT			
	tot	232
	full	17
	sites	215

5.75 , 5.50 -> J575sP550s_NOCWT			
	tot	227
	full	17
	sites	210

5.75 , 5.75 -> J575sP575s_NOCWT			
	tot	226
	full	17
	sites	209

5.75 , 6.00 -> J575sP600s_NOCWT			
	tot	226
	full	17
	sites	209

5.75 , 6.25 -> J575sP625s_NOCWT			
	tot	223
	full	17
	sites	206

5.75 , 6.50 -> J575sP650s_NOCWT			
	tot	219
	full	17
	sites	202

5.75 , 6.75 -> J575sP675s_NOCWT			
	tot	218
	full	17
	sites	201

5.75 , 7.00 -> J575sP700s_NOCWT			
	tot	215
	full	17
	sites	198

5.75 , 7.25 -> J575sP725s_NOCWT			
	tot	214
	full	17
	sites	197

5.75 , 7.50 -> J575sP750s_NOCWT			
	tot	214
	full	17
	sites	197

5.75 , 7.75 -> J575sP775s_NOCWT			
	tot	214
	full	17
	sites	197

5.75 , 8.00 -> J575sP800s_NOCWT			
	tot	214
	full	17
	sites	197

5.75 , 8.25 -> J575sP825s_NOCWT			
	tot	214
	full	17
	sites	197

5.75 , 8.50 -> J575sP850s_NOCWT			
	tot	214
	full	17
	sites	197

5.75 , 8.75 -> J575sP875s_NOCWT			
	tot	213
	full	17
	sites	196

5.75 , 9.00 -> J575sP900s_NOCWT			
	tot	213
	full	17
	sites	196

5.75 , 9.25 -> J575sP925s_NOCWT			
	tot	213
	full	17
	sites	196

5.75 , 9.50 -> J575sP950s_NOCWT			
	tot	213
	full	17
	sites	196

5.75 , 9.75 -> J575sP975s_NOCWT			
	tot	211
	full	17
	sites	194

5.75 , 10.00 -> J575sP1000s_NOCWT			
	tot	210
	full	17
	sites	193

5.75 , 10.25 -> J575sP1025s_NOCWT			
	tot	210
	full	17
	sites	193

5.75 , 10.50 -> J575sP1050s_NOCWT			
	tot	210
	full	17
	sites	193

5.75 , 10.75 -> J575sP1075s_NOCWT			
	tot	210
	full	17
	sites	193

5.75 , 11.00 -> J575sP1100s_NOCWT			
	tot	210
	full	17
	sites	193

5.75 , 11.25 -> J575sP1125s_NOCWT			
	tot	210
	full	17
	sites	193

5.75 , 11.50 -> J575sP1150s_NOCWT			
	tot	210
	full	17
	sites	193

5.75 , 11.75 -> J575sP1175s_NOCWT			
	tot	210
	full	17
	sites	193

5.75 , 12.00 -> J575sP1200s_NOCWT			
	tot	210
	full	17
	sites	193

6.00 , 4.00 -> J600sP400s_NOCWT			
	tot	262
	full	17
	sites	245

6.00 , 4.25 -> J600sP425s_NOCWT			
	tot	251
	full	17
	sites	234

6.00 , 4.50 -> J600sP450s_NOCWT			
	tot	247
	full	17
	sites	230

6.00 , 4.75 -> J600sP475s_NOCWT			
	tot	238
	full	17
	sites	221

6.00 , 5.00 -> J600sP500s_NOCWT			
	tot	233
	full	17
	sites	216

6.00 , 5.25 -> J600sP525s_NOCWT			
	tot	228
	full	17
	sites	211

6.00 , 5.50 -> J600sP550s_NOCWT			
	tot	224
	full	17
	sites	207

6.00 , 5.75 -> J600sP575s_NOCWT			
	tot	223
	full	17
	sites	206

6.00 , 6.00 -> J600sP600s_NOCWT			
	tot	223
	full	17
	sites	206

6.00 , 6.25 -> J600sP625s_NOCWT			
	tot	220
	full	17
	sites	203

6.00 , 6.50 -> J600sP650s_NOCWT			
	tot	216
	full	17
	sites	199

6.00 , 6.75 -> J600sP675s_NOCWT			
	tot	215
	full	17
	sites	198

6.00 , 7.00 -> J600sP700s_NOCWT			
	tot	212
	full	17
	sites	195

6.00 , 7.25 -> J600sP725s_NOCWT			
	tot	211
	full	17
	sites	194

6.00 , 7.50 -> J600sP750s_NOCWT			
	tot	211
	full	17
	sites	194

6.00 , 7.75 -> J600sP775s_NOCWT			
	tot	211
	full	17
	sites	194

6.00 , 8.00 -> J600sP800s_NOCWT			
	tot	211
	full	17
	sites	194

6.00 , 8.25 -> J600sP825s_NOCWT			
	tot	210
	full	17
	sites	193

6.00 , 8.50 -> J600sP850s_NOCWT			
	tot	210
	full	17
	sites	193

6.00 , 8.75 -> J600sP875s_NOCWT			
	tot	209
	full	17
	sites	192

6.00 , 9.00 -> J600sP900s_NOCWT			
	tot	209
	full	17
	sites	192

6.00 , 9.25 -> J600sP925s_NOCWT			
	tot	209
	full	17
	sites	192

6.00 , 9.50 -> J600sP950s_NOCWT			
	tot	209
	full	17
	sites	192

6.00 , 9.75 -> J600sP975s_NOCWT			
	tot	207
	full	17
	sites	190

6.00 , 10.00 -> J600sP1000s_NOCWT			
	tot	206
	full	17
	sites	189

6.00 , 10.25 -> J600sP1025s_NOCWT			
	tot	206
	full	17
	sites	189

6.00 , 10.50 -> J600sP1050s_NOCWT			
	tot	206
	full	17
	sites	189

6.00 , 10.75 -> J600sP1075s_NOCWT			ERROR!
	tot	198
	full	16
	sites	182

6.00 , 11.00 -> J600sP1100s_NOCWT			
	tot	206
	full	17
	sites	189

6.00 , 11.25 -> J600sP1125s_NOCWT			
	tot	206
	full	17
	sites	189

6.00 , 11.50 -> J600sP1150s_NOCWT			
	tot	206
	full	17
	sites	189

6.00 , 11.75 -> J600sP1175s_NOCWT			
	tot	206
	full	17
	sites	189

6.00 , 12.00 -> J600sP1200s_NOCWT			
	tot	206
	full	17
	sites	189

6.25 , 4.00 -> J625sP400s_NOCWT			
	tot	260
	full	17
	sites	243

6.25 , 4.25 -> J625sP425s_NOCWT			
	tot	250
	full	17
	sites	233

6.25 , 4.50 -> J625sP450s_NOCWT			
	tot	246
	full	17
	sites	229

6.25 , 4.75 -> J625sP475s_NOCWT			
	tot	236
	full	17
	sites	219

6.25 , 5.00 -> J625sP500s_NOCWT			
	tot	232
	full	17
	sites	215

6.25 , 5.25 -> J625sP525s_NOCWT			
	tot	227
	full	17
	sites	210

6.25 , 5.50 -> J625sP550s_NOCWT			
	tot	220
	full	17
	sites	203

6.25 , 5.75 -> J625sP575s_NOCWT			
	tot	219
	full	17
	sites	202

6.25 , 6.00 -> J625sP600s_NOCWT			
	tot	219
	full	17
	sites	202

6.25 , 6.25 -> J625sP625s_NOCWT			
	tot	215
	full	17
	sites	198

6.25 , 6.50 -> J625sP650s_NOCWT			
	tot	211
	full	17
	sites	194

6.25 , 6.75 -> J625sP675s_NOCWT			
	tot	210
	full	17
	sites	193

6.25 , 7.00 -> J625sP700s_NOCWT			
	tot	207
	full	17
	sites	190

6.25 , 7.25 -> J625sP725s_NOCWT			
	tot	206
	full	17
	sites	189

6.25 , 7.50 -> J625sP750s_NOCWT			
	tot	206
	full	17
	sites	189

6.25 , 7.75 -> J625sP775s_NOCWT			
	tot	206
	full	17
	sites	189

6.25 , 8.00 -> J625sP800s_NOCWT			
	tot	206
	full	17
	sites	189

6.25 , 8.25 -> J625sP825s_NOCWT			
	tot	205
	full	17
	sites	188

6.25 , 8.50 -> J625sP850s_NOCWT			
	tot	205
	full	17
	sites	188

6.25 , 8.75 -> J625sP875s_NOCWT			
	tot	204
	full	17
	sites	187

6.25 , 9.00 -> J625sP900s_NOCWT			
	tot	204
	full	17
	sites	187

6.25 , 9.25 -> J625sP925s_NOCWT			
	tot	204
	full	17
	sites	187

6.25 , 9.50 -> J625sP950s_NOCWT			
	tot	204
	full	17
	sites	187

6.25 , 9.75 -> J625sP975s_NOCWT			
	tot	202
	full	17
	sites	185

6.25 , 10.00 -> J625sP1000s_NOCWT			
	tot	201
	full	17
	sites	184

6.25 , 10.25 -> J625sP1025s_NOCWT			
	tot	201
	full	17
	sites	184

6.25 , 10.50 -> J625sP1050s_NOCWT			
	tot	201
	full	17
	sites	184

6.25 , 10.75 -> J625sP1075s_NOCWT			
	tot	201
	full	17
	sites	184

6.25 , 11.00 -> J625sP1100s_NOCWT			
	tot	201
	full	17
	sites	184

6.25 , 11.25 -> J625sP1125s_NOCWT			
	tot	201
	full	17
	sites	184

6.25 , 11.50 -> J625sP1150s_NOCWT			
	tot	201
	full	17
	sites	184

6.25 , 11.75 -> J625sP1175s_NOCWT			
	tot	201
	full	17
	sites	184

6.25 , 12.00 -> J625sP1200s_NOCWT			
	tot	201
	full	17
	sites	184

6.50 , 4.00 -> J650sP400s_NOCWT			
	tot	259
	full	17
	sites	242

6.50 , 4.25 -> J650sP425s_NOCWT			
	tot	248
	full	17
	sites	231

6.50 , 4.50 -> J650sP450s_NOCWT			
	tot	244
	full	17
	sites	227

6.50 , 4.75 -> J650sP475s_NOCWT			
	tot	235
	full	17
	sites	218

6.50 , 5.00 -> J650sP500s_NOCWT			
	tot	230
	full	17
	sites	213

6.50 , 5.25 -> J650sP525s_NOCWT			
	tot	225
	full	17
	sites	208

6.50 , 5.50 -> J650sP550s_NOCWT			
	tot	218
	full	17
	sites	201

6.50 , 5.75 -> J650sP575s_NOCWT			
	tot	217
	full	17
	sites	200

6.50 , 6.00 -> J650sP600s_NOCWT			
	tot	217
	full	17
	sites	200

6.50 , 6.25 -> J650sP625s_NOCWT			
	tot	213
	full	17
	sites	196

6.50 , 6.50 -> J650sP650s_NOCWT			
	tot	209
	full	17
	sites	192

6.50 , 6.75 -> J650sP675s_NOCWT			
	tot	208
	full	17
	sites	191

6.50 , 7.00 -> J650sP700s_NOCWT			
	tot	205
	full	17
	sites	188

6.50 , 7.25 -> J650sP725s_NOCWT			
	tot	204
	full	17
	sites	187

6.50 , 7.50 -> J650sP750s_NOCWT			
	tot	204
	full	17
	sites	187

6.50 , 7.75 -> J650sP775s_NOCWT			
	tot	204
	full	17
	sites	187

6.50 , 8.00 -> J650sP800s_NOCWT			
	tot	204
	full	17
	sites	187

6.50 , 8.25 -> J650sP825s_NOCWT			
	tot	203
	full	17
	sites	186

6.50 , 8.50 -> J650sP850s_NOCWT			
	tot	203
	full	17
	sites	186

6.50 , 8.75 -> J650sP875s_NOCWT			
	tot	202
	full	17
	sites	185

6.50 , 9.00 -> J650sP900s_NOCWT			
	tot	202
	full	17
	sites	185

6.50 , 9.25 -> J650sP925s_NOCWT			
	tot	202
	full	17
	sites	185

6.50 , 9.50 -> J650sP950s_NOCWT			
	tot	202
	full	17
	sites	185

6.50 , 9.75 -> J650sP975s_NOCWT			
	tot	201
	full	17
	sites	184

6.50 , 10.00 -> J650sP1000s_NOCWT			
	tot	200
	full	17
	sites	183

6.50 , 10.25 -> J650sP1025s_NOCWT			
	tot	200
	full	17
	sites	183

6.50 , 10.50 -> J650sP1050s_NOCWT			
	tot	200
	full	17
	sites	183

6.50 , 10.75 -> J650sP1075s_NOCWT			
	tot	200
	full	17
	sites	183

6.50 , 11.00 -> J650sP1100s_NOCWT			
	tot	200
	full	17
	sites	183

6.50 , 11.25 -> J650sP1125s_NOCWT			
	tot	200
	full	17
	sites	183

6.50 , 11.50 -> J650sP1150s_NOCWT			
	tot	200
	full	17
	sites	183

6.50 , 11.75 -> J650sP1175s_NOCWT			
	tot	200
	full	17
	sites	183

6.50 , 12.00 -> J650sP1200s_NOCWT			
	tot	200
	full	17
	sites	183

6.75 , 4.00 -> J675sP400s_NOCWT			
	tot	258
	full	17
	sites	241

6.75 , 4.25 -> J675sP425s_NOCWT			
	tot	247
	full	17
	sites	230

6.75 , 4.50 -> J675sP450s_NOCWT			
	tot	243
	full	17
	sites	226

6.75 , 4.75 -> J675sP475s_NOCWT			
	tot	234
	full	17
	sites	217

6.75 , 5.00 -> J675sP500s_NOCWT			
	tot	229
	full	17
	sites	212

6.75 , 5.25 -> J675sP525s_NOCWT			
	tot	224
	full	17
	sites	207

6.75 , 5.50 -> J675sP550s_NOCWT			
	tot	216
	full	17
	sites	199

6.75 , 5.75 -> J675sP575s_NOCWT			
	tot	215
	full	17
	sites	198

6.75 , 6.00 -> J675sP600s_NOCWT			
	tot	215
	full	17
	sites	198

6.75 , 6.25 -> J675sP625s_NOCWT			
	tot	211
	full	17
	sites	194

6.75 , 6.50 -> J675sP650s_NOCWT			
	tot	206
	full	17
	sites	189

6.75 , 6.75 -> J675sP675s_NOCWT			
	tot	205
	full	17
	sites	188

6.75 , 7.00 -> J675sP700s_NOCWT			
	tot	202
	full	17
	sites	185

6.75 , 7.25 -> J675sP725s_NOCWT			
	tot	201
	full	17
	sites	184

6.75 , 7.50 -> J675sP750s_NOCWT			
	tot	201
	full	17
	sites	184

6.75 , 7.75 -> J675sP775s_NOCWT			
	tot	201
	full	17
	sites	184

6.75 , 8.00 -> J675sP800s_NOCWT			
	tot	201
	full	17
	sites	184

6.75 , 8.25 -> J675sP825s_NOCWT			
	tot	200
	full	17
	sites	183

6.75 , 8.50 -> J675sP850s_NOCWT			
	tot	200
	full	17
	sites	183

6.75 , 8.75 -> J675sP875s_NOCWT			
	tot	199
	full	17
	sites	182

6.75 , 9.00 -> J675sP900s_NOCWT			
	tot	199
	full	17
	sites	182

6.75 , 9.25 -> J675sP925s_NOCWT			
	tot	199
	full	17
	sites	182

6.75 , 9.50 -> J675sP950s_NOCWT			
	tot	199
	full	17
	sites	182

6.75 , 9.75 -> J675sP975s_NOCWT			
	tot	198
	full	17
	sites	181

6.75 , 10.00 -> J675sP1000s_NOCWT			
	tot	197
	full	17
	sites	180

6.75 , 10.25 -> J675sP1025s_NOCWT			
	tot	197
	full	17
	sites	180

6.75 , 10.50 -> J675sP1050s_NOCWT			
	tot	197
	full	17
	sites	180

6.75 , 10.75 -> J675sP1075s_NOCWT			
	tot	197
	full	17
	sites	180

6.75 , 11.00 -> J675sP1100s_NOCWT			
	tot	197
	full	17
	sites	180

6.75 , 11.25 -> J675sP1125s_NOCWT			
	tot	197
	full	17
	sites	180

6.75 , 11.50 -> J675sP1150s_NOCWT			
	tot	197
	full	17
	sites	180

6.75 , 11.75 -> J675sP1175s_NOCWT			
	tot	197
	full	17
	sites	180

6.75 , 12.00 -> J675sP1200s_NOCWT			
	tot	197
	full	17
	sites	180

7.00 , 4.00 -> J700sP400s_NOCWT			
	tot	255
	full	17
	sites	238

7.00 , 4.25 -> J700sP425s_NOCWT			
	tot	244
	full	17
	sites	227

7.00 , 4.50 -> J700sP450s_NOCWT			
	tot	240
	full	17
	sites	223

7.00 , 4.75 -> J700sP475s_NOCWT			
	tot	231
	full	17
	sites	214

7.00 , 5.00 -> J700sP500s_NOCWT			
	tot	226
	full	17
	sites	209

7.00 , 5.25 -> J700sP525s_NOCWT			
	tot	221
	full	17
	sites	204

7.00 , 5.50 -> J700sP550s_NOCWT			
	tot	213
	full	17
	sites	196

7.00 , 5.75 -> J700sP575s_NOCWT			
	tot	212
	full	17
	sites	195

7.00 , 6.00 -> J700sP600s_NOCWT			
	tot	212
	full	17
	sites	195

7.00 , 6.25 -> J700sP625s_NOCWT			
	tot	208
	full	17
	sites	191

7.00 , 6.50 -> J700sP650s_NOCWT			
	tot	203
	full	17
	sites	186

7.00 , 6.75 -> J700sP675s_NOCWT			
	tot	202
	full	17
	sites	185

7.00 , 7.00 -> J700sP700s_NOCWT			
	tot	199
	full	17
	sites	182

7.00 , 7.25 -> J700sP725s_NOCWT			
	tot	198
	full	17
	sites	181

7.00 , 7.50 -> J700sP750s_NOCWT			
	tot	198
	full	17
	sites	181

7.00 , 7.75 -> J700sP775s_NOCWT			
	tot	198
	full	17
	sites	181

7.00 , 8.00 -> J700sP800s_NOCWT			
	tot	198
	full	17
	sites	181

7.00 , 8.25 -> J700sP825s_NOCWT			
	tot	197
	full	17
	sites	180

7.00 , 8.50 -> J700sP850s_NOCWT			
	tot	197
	full	17
	sites	180

7.00 , 8.75 -> J700sP875s_NOCWT			
	tot	196
	full	17
	sites	179

7.00 , 9.00 -> J700sP900s_NOCWT			
	tot	196
	full	17
	sites	179

7.00 , 9.25 -> J700sP925s_NOCWT			
	tot	196
	full	17
	sites	179

7.00 , 9.50 -> J700sP950s_NOCWT			
	tot	196
	full	17
	sites	179

7.00 , 9.75 -> J700sP975s_NOCWT			
	tot	195
	full	17
	sites	178

7.00 , 10.00 -> J700sP1000s_NOCWT			
	tot	194
	full	17
	sites	177

7.00 , 10.25 -> J700sP1025s_NOCWT			
	tot	194
	full	17
	sites	177

7.00 , 10.50 -> J700sP1050s_NOCWT			
	tot	194
	full	17
	sites	177

7.00 , 10.75 -> J700sP1075s_NOCWT			
	tot	194
	full	17
	sites	177

7.00 , 11.00 -> J700sP1100s_NOCWT			
	tot	194
	full	17
	sites	177

7.00 , 11.25 -> J700sP1125s_NOCWT			
	tot	194
	full	17
	sites	177

7.00 , 11.50 -> J700sP1150s_NOCWT			
	tot	194
	full	17
	sites	177

7.00 , 11.75 -> J700sP1175s_NOCWT			
	tot	194
	full	17
	sites	177

7.00 , 12.00 -> J700sP1200s_NOCWT			
	tot	194
	full	17
	sites	177

7.25 , 4.00 -> J725sP400s_NOCWT			
	tot	255
	full	17
	sites	238

7.25 , 4.25 -> J725sP425s_NOCWT			
	tot	244
	full	17
	sites	227

7.25 , 4.50 -> J725sP450s_NOCWT			
	tot	240
	full	17
	sites	223

7.25 , 4.75 -> J725sP475s_NOCWT			
	tot	229
	full	17
	sites	212

7.25 , 5.00 -> J725sP500s_NOCWT			
	tot	225
	full	17
	sites	208

7.25 , 5.25 -> J725sP525s_NOCWT			
	tot	220
	full	17
	sites	203

7.25 , 5.50 -> J725sP550s_NOCWT			
	tot	211
	full	17
	sites	194

7.25 , 5.75 -> J725sP575s_NOCWT			
	tot	209
	full	17
	sites	192

7.25 , 6.00 -> J725sP600s_NOCWT			
	tot	209
	full	17
	sites	192

7.25 , 6.25 -> J725sP625s_NOCWT			
	tot	205
	full	17
	sites	188

7.25 , 6.50 -> J725sP650s_NOCWT			
	tot	200
	full	17
	sites	183

7.25 , 6.75 -> J725sP675s_NOCWT			
	tot	199
	full	17
	sites	182

7.25 , 7.00 -> J725sP700s_NOCWT			
	tot	196
	full	17
	sites	179

7.25 , 7.25 -> J725sP725s_NOCWT			
	tot	195
	full	17
	sites	178

7.25 , 7.50 -> J725sP750s_NOCWT			
	tot	195
	full	17
	sites	178

7.25 , 7.75 -> J725sP775s_NOCWT			
	tot	195
	full	17
	sites	178

7.25 , 8.00 -> J725sP800s_NOCWT			
	tot	195
	full	17
	sites	178

7.25 , 8.25 -> J725sP825s_NOCWT			
	tot	194
	full	17
	sites	177

7.25 , 8.50 -> J725sP850s_NOCWT			
	tot	194
	full	17
	sites	177

7.25 , 8.75 -> J725sP875s_NOCWT			
	tot	192
	full	17
	sites	175

7.25 , 9.00 -> J725sP900s_NOCWT			
	tot	191
	full	17
	sites	174

7.25 , 9.25 -> J725sP925s_NOCWT			
	tot	191
	full	17
	sites	174

7.25 , 9.50 -> J725sP950s_NOCWT			
	tot	191
	full	17
	sites	174

7.25 , 9.75 -> J725sP975s_NOCWT			
	tot	190
	full	17
	sites	173

7.25 , 10.00 -> J725sP1000s_NOCWT			
	tot	189
	full	17
	sites	172

7.25 , 10.25 -> J725sP1025s_NOCWT			
	tot	189
	full	17
	sites	172

7.25 , 10.50 -> J725sP1050s_NOCWT			
	tot	189
	full	17
	sites	172

7.25 , 10.75 -> J725sP1075s_NOCWT			
	tot	189
	full	17
	sites	172

7.25 , 11.00 -> J725sP1100s_NOCWT			
	tot	189
	full	17
	sites	172

7.25 , 11.25 -> J725sP1125s_NOCWT			
	tot	189
	full	17
	sites	172

7.25 , 11.50 -> J725sP1150s_NOCWT			
	tot	189
	full	17
	sites	172

7.25 , 11.75 -> J725sP1175s_NOCWT			
	tot	189
	full	17
	sites	172

7.25 , 12.00 -> J725sP1200s_NOCWT			
	tot	189
	full	17
	sites	172

7.50 , 4.00 -> J750sP400s_NOCWT			
	tot	254
	full	17
	sites	237

7.50 , 4.25 -> J750sP425s_NOCWT			
	tot	243
	full	17
	sites	226

7.50 , 4.50 -> J750sP450s_NOCWT			
	tot	239
	full	17
	sites	222

7.50 , 4.75 -> J750sP475s_NOCWT			
	tot	228
	full	17
	sites	211

7.50 , 5.00 -> J750sP500s_NOCWT			
	tot	222
	full	17
	sites	205

7.50 , 5.25 -> J750sP525s_NOCWT			
	tot	216
	full	17
	sites	199

7.50 , 5.50 -> J750sP550s_NOCWT			
	tot	207
	full	17
	sites	190

7.50 , 5.75 -> J750sP575s_NOCWT			
	tot	205
	full	17
	sites	188

7.50 , 6.00 -> J750sP600s_NOCWT			
	tot	204
	full	17
	sites	187

7.50 , 6.25 -> J750sP625s_NOCWT			
	tot	200
	full	17
	sites	183

7.50 , 6.50 -> J750sP650s_NOCWT			
	tot	195
	full	17
	sites	178

7.50 , 6.75 -> J750sP675s_NOCWT			
	tot	193
	full	17
	sites	176

7.50 , 7.00 -> J750sP700s_NOCWT			
	tot	190
	full	17
	sites	173

7.50 , 7.25 -> J750sP725s_NOCWT			
	tot	189
	full	17
	sites	172

7.50 , 7.50 -> J750sP750s_NOCWT			
	tot	189
	full	17
	sites	172

7.50 , 7.75 -> J750sP775s_NOCWT			
	tot	189
	full	17
	sites	172

7.50 , 8.00 -> J750sP800s_NOCWT			
	tot	190
	full	17
	sites	173

7.50 , 8.25 -> J750sP825s_NOCWT			
	tot	189
	full	17
	sites	172

7.50 , 8.50 -> J750sP850s_NOCWT			
	tot	189
	full	17
	sites	172

7.50 , 8.75 -> J750sP875s_NOCWT			
	tot	187
	full	17
	sites	170

7.50 , 9.00 -> J750sP900s_NOCWT			
	tot	186
	full	17
	sites	169

7.50 , 9.25 -> J750sP925s_NOCWT			
	tot	186
	full	17
	sites	169

7.50 , 9.50 -> J750sP950s_NOCWT			
	tot	186
	full	17
	sites	169

7.50 , 9.75 -> J750sP975s_NOCWT			
	tot	185
	full	17
	sites	168

7.50 , 10.00 -> J750sP1000s_NOCWT			
	tot	184
	full	17
	sites	167

7.50 , 10.25 -> J750sP1025s_NOCWT			
	tot	184
	full	17
	sites	167

7.50 , 10.50 -> J750sP1050s_NOCWT			
	tot	183
	full	17
	sites	166

7.50 , 10.75 -> J750sP1075s_NOCWT			
	tot	183
	full	17
	sites	166

7.50 , 11.00 -> J750sP1100s_NOCWT			
	tot	183
	full	17
	sites	166

7.50 , 11.25 -> J750sP1125s_NOCWT			
	tot	183
	full	17
	sites	166

7.50 , 11.50 -> J750sP1150s_NOCWT			
	tot	183
	full	17
	sites	166

7.50 , 11.75 -> J750sP1175s_NOCWT			
	tot	183
	full	17
	sites	166

7.50 , 12.00 -> J750sP1200s_NOCWT			
	tot	183
	full	17
	sites	166

7.75 , 4.00 -> J775sP400s_NOCWT			
	tot	254
	full	17
	sites	237

7.75 , 4.25 -> J775sP425s_NOCWT			
	tot	243
	full	17
	sites	226

7.75 , 4.50 -> J775sP450s_NOCWT			
	tot	239
	full	17
	sites	222

7.75 , 4.75 -> J775sP475s_NOCWT			
	tot	228
	full	17
	sites	211

7.75 , 5.00 -> J775sP500s_NOCWT			
	tot	221
	full	17
	sites	204

7.75 , 5.25 -> J775sP525s_NOCWT			
	tot	215
	full	17
	sites	198

7.75 , 5.50 -> J775sP550s_NOCWT			
	tot	206
	full	17
	sites	189

7.75 , 5.75 -> J775sP575s_NOCWT			
	tot	204
	full	17
	sites	187

7.75 , 6.00 -> J775sP600s_NOCWT			
	tot	203
	full	17
	sites	186

7.75 , 6.25 -> J775sP625s_NOCWT			
	tot	199
	full	17
	sites	182

7.75 , 6.50 -> J775sP650s_NOCWT			
	tot	193
	full	17
	sites	176

7.75 , 6.75 -> J775sP675s_NOCWT			
	tot	191
	full	17
	sites	174

7.75 , 7.00 -> J775sP700s_NOCWT			
	tot	188
	full	17
	sites	171

7.75 , 7.25 -> J775sP725s_NOCWT			
	tot	187
	full	17
	sites	170

7.75 , 7.50 -> J775sP750s_NOCWT			
	tot	187
	full	17
	sites	170

7.75 , 7.75 -> J775sP775s_NOCWT			
	tot	187
	full	17
	sites	170

7.75 , 8.00 -> J775sP800s_NOCWT			
	tot	188
	full	17
	sites	171

7.75 , 8.25 -> J775sP825s_NOCWT			
	tot	187
	full	17
	sites	170

7.75 , 8.50 -> J775sP850s_NOCWT			
	tot	187
	full	17
	sites	170

7.75 , 8.75 -> J775sP875s_NOCWT			
	tot	185
	full	17
	sites	168

7.75 , 9.00 -> J775sP900s_NOCWT			
	tot	184
	full	17
	sites	167

7.75 , 9.25 -> J775sP925s_NOCWT			
	tot	184
	full	17
	sites	167

7.75 , 9.50 -> J775sP950s_NOCWT			
	tot	184
	full	17
	sites	167

7.75 , 9.75 -> J775sP975s_NOCWT			
	tot	183
	full	17
	sites	166

7.75 , 10.00 -> J775sP1000s_NOCWT			
	tot	182
	full	17
	sites	165

7.75 , 10.25 -> J775sP1025s_NOCWT			
	tot	181
	full	17
	sites	164

7.75 , 10.50 -> J775sP1050s_NOCWT			
	tot	180
	full	17
	sites	163

7.75 , 10.75 -> J775sP1075s_NOCWT			
	tot	180
	full	17
	sites	163

7.75 , 11.00 -> J775sP1100s_NOCWT			
	tot	180
	full	17
	sites	163

7.75 , 11.25 -> J775sP1125s_NOCWT			
	tot	180
	full	17
	sites	163

7.75 , 11.50 -> J775sP1150s_NOCWT			
	tot	180
	full	17
	sites	163

7.75 , 11.75 -> J775sP1175s_NOCWT			
	tot	180
	full	17
	sites	163

7.75 , 12.00 -> J775sP1200s_NOCWT			
	tot	180
	full	17
	sites	163

8.00 , 4.00 -> J800sP400s_NOCWT			
	tot	253
	full	17
	sites	236

8.00 , 4.25 -> J800sP425s_NOCWT			
	tot	242
	full	17
	sites	225

8.00 , 4.50 -> J800sP450s_NOCWT			
	tot	237
	full	17
	sites	220

8.00 , 4.75 -> J800sP475s_NOCWT			
	tot	226
	full	17
	sites	209

8.00 , 5.00 -> J800sP500s_NOCWT			
	tot	219
	full	17
	sites	202

8.00 , 5.25 -> J800sP525s_NOCWT			
	tot	213
	full	17
	sites	196

8.00 , 5.50 -> J800sP550s_NOCWT			
	tot	204
	full	17
	sites	187

8.00 , 5.75 -> J800sP575s_NOCWT			
	tot	202
	full	17
	sites	185

8.00 , 6.00 -> J800sP600s_NOCWT			
	tot	200
	full	17
	sites	183

8.00 , 6.25 -> J800sP625s_NOCWT			
	tot	196
	full	17
	sites	179

8.00 , 6.50 -> J800sP650s_NOCWT			
	tot	189
	full	17
	sites	172

8.00 , 6.75 -> J800sP675s_NOCWT			
	tot	187
	full	17
	sites	170

8.00 , 7.00 -> J800sP700s_NOCWT			
	tot	184
	full	17
	sites	167

8.00 , 7.25 -> J800sP725s_NOCWT			
	tot	183
	full	17
	sites	166

8.00 , 7.50 -> J800sP750s_NOCWT			
	tot	183
	full	17
	sites	166

8.00 , 7.75 -> J800sP775s_NOCWT			
	tot	183
	full	17
	sites	166

8.00 , 8.00 -> J800sP800s_NOCWT			
	tot	183
	full	17
	sites	166

8.00 , 8.25 -> J800sP825s_NOCWT			
	tot	182
	full	17
	sites	165

8.00 , 8.50 -> J800sP850s_NOCWT			
	tot	182
	full	17
	sites	165

8.00 , 8.75 -> J800sP875s_NOCWT			
	tot	180
	full	17
	sites	163

8.00 , 9.00 -> J800sP900s_NOCWT			
	tot	179
	full	17
	sites	162

8.00 , 9.25 -> J800sP925s_NOCWT			
	tot	179
	full	17
	sites	162

8.00 , 9.50 -> J800sP950s_NOCWT			
	tot	180
	full	17
	sites	163

8.00 , 9.75 -> J800sP975s_NOCWT			
	tot	179
	full	17
	sites	162

8.00 , 10.00 -> J800sP1000s_NOCWT			
	tot	178
	full	17
	sites	161

8.00 , 10.25 -> J800sP1025s_NOCWT			
	tot	177
	full	17
	sites	160

8.00 , 10.50 -> J800sP1050s_NOCWT			
	tot	176
	full	17
	sites	159

8.00 , 10.75 -> J800sP1075s_NOCWT			
	tot	176
	full	17
	sites	159

8.00 , 11.00 -> J800sP1100s_NOCWT			
	tot	176
	full	17
	sites	159

8.00 , 11.25 -> J800sP1125s_NOCWT			
	tot	176
	full	17
	sites	159

8.00 , 11.50 -> J800sP1150s_NOCWT			
	tot	176
	full	17
	sites	159

8.00 , 11.75 -> J800sP1175s_NOCWT			
	tot	176
	full	17
	sites	159

8.00 , 12.00 -> J800sP1200s_NOCWT			
	tot	176
	full	17
	sites	159
